org.ppsspp.ppsspp,Action,3314,10 000 000 - 50 000 000
org.zamedev.gloomydungeons2.opensource,Action,22,5 000 - 10 000
org.scummvm.scummvm,Adventure,504, 500 000 - 1 000 000
org.androidsoft.games.slowit,Arcade,2050,5 000 000 - 10 000 000
io.githubfede0d.planetrider,Arcade,80,100 000 - 500 000
com.as.anagramsolver,Board,815,500 000 - 1 000 000
org.secuso.privacyfriendlydicer,Board,71,50 000 - 100 000
org.geometerplus.zlibrary.ui.android,Books & Reference,2114,50 000 000 - 100 000 000
org.evilsoft.pathfinder.reference,Books & Reference,951,100 000 - 500 000
ru.valle.btc,Business,1095,1 000 000 - 5 000 000
com.nkanaev.comics,Comics,1902,1 000 000 - 5 000 000
cx.ring,Communication,5591,100 000 000 - 500 000 000
nu.firetech.android.pactrack,Communication,2044,100 000 - 500 000
com.amabyte.vtucslabmanual,Education,2012,1 000 000 - 5 000 000
be.lionslink.ucllstudent,Education,29,1 000 - 5 000
com.reicast.emulator,Entertainment,2046,500 000 - 1 000 000
com.sevag.unrealtracker,Entertainment,153,100 000 - 500 000
com.mattieapps.roommates,Finance,399,100 000 - 500 000
nitezh.ministock,Finance,250,500 000 - 1 000 000
apps.babycaretimer,Health & Fitness,1011,1 000 000 - 5 000 000
org.runnerup,Health & Fitness,394,50 000 - 100 000
com.jeffboody.GearsES2eclair,Libraries & Demo,918,5 000 000 - 10 000 000
com.ghostsq.commander.sftp,Libraries & Demo,31,100 000 - 500 000
com.mehmetakiftutuncu.eshotroid,Maps & Navigation,782,100 000 - 500 000
org.ametro,Maps & Navigation,335,100 000 - 500 000
com.serwylo.msjviewer,Medical,15,50 000 - 100 000
naman14.timber,Music & Audio,615,100 000 - 500 000
com.smithdtyler.prettygoodmusicplayer,Music & Audio,363,500 000 - 1 000 000
monakhv.android.samlib,News & Magazines,1539,1 000 000 - 5 000 000
in.shick.diode,News & Magazines,1028,100 000 - 500 000
com.dwak.lastcall,Personalization,1135,5 000 000 - 10 000 000
com.primokorn.enhancement,Personalization,2502,1 000 000 - 5 000 000
de.onyxbits.photobookmark,Photography,2290,5 000 000 - 10 000 000
com.workingagenda.fissure,Photography,92,10 000 - 50 000
org.openintents.notepad,Productivity,1158,500 000 - 1 000 000
trikita.slide,Productivity,1117,5 000 000 - 10 000 000
org.segin.bfinterpreter,Productivity,1106,100 000 - 500 000
org.jfedor.frozenbubble,Puzzle,1132,1 000 000 - 5 000 000
com.totsp.crossword.shortyz,Puzzle,632,100 000 - 500 000
de.onyxbits.textfiction,Role Playing,2053,1 000 000 - 5 000 000
com.shatteredpixel.shatteredpixeldungeon,Role Playing,2021, 500 000 - 1 000 000
org.openintents.shopping,Shopping,2085,100 000 000 - 500 000 000
com.google.zxing.client.android,Shopping,266,1 000 000 - 5 000 000
org.andstatus.app,Social,2178,5 000 000 - 10 000 000
org.qii.weiciyuan,Social,1700,100 000 - 500 000
com.sinpo.xnfc,Tools,10914,1 000 000 000 - 5 000 000 000
com.zegoggles.smssync,Tools,.2749,1 000 000 000 - 5 000 000 000
org.gc.networktester,Tools,2108,10 000 000 - 50 000 000
com.banasiak.coinflip,Tools,2073,1 000 000 - 5 000 000
com.andybotting.tramhunter,Travel & Local,977,100 000 - 500 000
net.cyclestreets,Travel & Local,263,500 000 - 1 000 000
fr.mobdev.goblim,Video Players & Editors,2004,50 000 000 - 100 000 000
ru.gelin.android.weather.notification,Weather,2122,100 000 - 500 000
nl.implode.regenalarm,Weather,20,10 000 - 50 000